using spj_data;
TABLE S="s",P="p",J="j",SPJ="spj";

TUPLE<S> s, s1, s2;
TUPLE<P> p,p1;
TUPLE<SPJ> spj,spj1,spjx,spjy;
TUPLE<J>j,j1,jno;
TUPLE t,px;


GET(p["PNAME"]){p["COLOR"]=="RED"};
DELETE(p){ p["WEIGHT"]>20 && p["WEIGHT"]<=30};
GET(p["PNAME"]){p["COLOR"]=="RED"};
DELETE(p){ p["COLOR"]=="RED"};
GET(p["PNAME"]){p["COLOR"]=="RED"};
GET(p["PNO"],p["PNAME"]){p["WEIGHT"]<40};
GET(p["PNO"],p["COLOR"],p["WEIGHT"]){p["WEIGHT"]<=40};

PUT(p["PNO"]="P1");
PUT(p["PNO"]="P4",p["PNAME"]="lsd",p["COLOR"]="RED");
PUT(p["PNO"]="P6",p["PNAME"]="chi_lun",p["COLOR"]="RED");

PUT(p["PNAME"]="luo_mu",p["COLOR"]="RED",p["WEIGHT"]=12){p["PNO"]=="P1"};
PUT(p["PNAME"]="lsd"){p["WEIGHT"]==14};
PUT(p["WEIGHT"]=13){p["PNAME"]=="lsd"};
PUT(p["WEIGHT"]=30){p["COLOR"]=="RED" && (p["PNO"]=="P6" || p["PNO"]=="P5") };

GET(t["SNO"]){t@SPJ && t["JNO"]=="J1" && t["PNO"]=="P1"};
GET(spj["SNO"]){
p1["COLOR"]=="RED" && spj["JNO"]=="J1" && spj["PNO"]==p1["PNO"]
};
GET(t["JNO"]){
    t@J
};

GET(j["JNO"]){

any(t@SPJ,j["JNO"]==spj["JNO"] && s["SNO"]==spj["SNO"] && p["PNO"]==spj["PNO"],
~(p["COLOR"]=="RED" && s["CITY"] == "Tianjin")
)

};

GET(jno["JNO"]){
    any(px@P, spjx["PNO"]==px["PNO"] && spjx["SNO"]=="S1", exist(spjy,spjy["JNO"]==jno["JNO"] && spjy["PNO"]==px["PNO"] && spjy["SNO"]==spjx["SNO"]))
};

S=GET(jno["JNO"]){
    any(px@P, spjx["PNO"]==px["PNO"] && spjx["SNO"]=="S1", exist(spjy,spjy["JNO"]==jno["JNO"] && spjy["PNO"]==px["PNO"] && spjy["SNO"]==spjx["SNO"]))
};
TUPLE<S> sss;
GET(sss["JNO"]){
    a@S
};